ST 558 Project 1
…
Call the functions.

Call the function for the A dataset and name it edu_a. Then print out the list of two tibbles for A. Call the function for the B dataset and name it edu_b. Then print out the list of two tibbles for B.

edu_a <- wrap_all("https://www4.stat.ncsu.edu/~online/datasets/EDU01a.csv")
edu_a

$`County Data`
# A tibble: 31,225 × 6
   area_name   STCOU Enrollment Year_Date Measurement State
   <chr>       <chr>      <dbl>     <dbl> <chr>       <chr>
 1 Autauga, AL 01001       6829      1987 EDU0101     AL   
 2 Autauga, AL 01001       6900      1988 EDU0101     AL   
 3 Autauga, AL 01001       6920      1989 EDU0101     AL   
 4 Autauga, AL 01001       6847      1990 EDU0101     AL   
 5 Autauga, AL 01001       7008      1991 EDU0101     AL   
 6 Autauga, AL 01001       7137      1992 EDU0101     AL   
 7 Autauga, AL 01001       7152      1993 EDU0101     AL   
 8 Autauga, AL 01001       7381      1994 EDU0101     AL   
 9 Autauga, AL 01001       7568      1995 EDU0101     AL   
10 Autauga, AL 01001       7834      1996 EDU0101     AL   
# ℹ 31,215 more rows

$`Non-County Data`
# A tibble: 520 × 6
   area_name     STCOU Enrollment Year_Date Measurement Division
   <chr>         <chr>      <dbl>     <dbl> <chr>       <chr>   
 1 UNITED STATES 00000   40024299      1987 EDU0101     Error   
 2 UNITED STATES 00000   39967624      1988 EDU0101     Error   
 3 UNITED STATES 00000   40317775      1989 EDU0101     Error   
 4 UNITED STATES 00000   40737600      1990 EDU0101     Error   
 5 UNITED STATES 00000   41385442      1991 EDU0101     Error   
 6 UNITED STATES 00000   42088151      1992 EDU0101     Error   
 7 UNITED STATES 00000   42724710      1993 EDU0101     Error   
 8 UNITED STATES 00000   43369917      1994 EDU0101     Error   
 9 UNITED STATES 00000   43993459      1995 EDU0101     Error   
10 UNITED STATES 00000   44715737      1996 EDU0101     Error   
# ℹ 510 more rows

edu_b <- wrap_all("https://www4.stat.ncsu.edu/~online/datasets/EDU01b.csv")
edu_b

$`County Data`
# A tibble: 31,200 × 6
   area_name   STCOU Enrollment Year_Date Measurement State
   <chr>       <chr>      <dbl>     <dbl> <chr>       <chr>
 1 Autauga, AL 01001       8099      1997 EDU0101     AL   
 2 Autauga, AL 01001       8211      1998 EDU0101     AL   
 3 Autauga, AL 01001       8489      1999 EDU0101     AL   
 4 Autauga, AL 01001       8912      2000 EDU0102     AL   
 5 Autauga, AL 01001       8626      2001 EDU0102     AL   
 6 Autauga, AL 01001       8762      2002 EDU0102     AL   
 7 Autauga, AL 01001       9105      2003 EDU0152     AL   
 8 Autauga, AL 01001       9200      2004 EDU0152     AL   
 9 Autauga, AL 01001       9559      2005 EDU0152     AL   
10 Autauga, AL 01001       9652      2006 EDU0152     AL   
# ℹ 31,190 more rows

$`Non-County Data`
# A tibble: 519 × 6
   area_name     STCOU Enrollment Year_Date Measurement Division
   <chr>         <chr>      <dbl>     <dbl> <chr>       <chr>   
 1 UNITED STATES 00000   44534459      1997 EDU0101     Error   
 2 UNITED STATES 00000   46245814      1998 EDU0101     Error   
 3 UNITED STATES 00000   46368903      1999 EDU0101     Error   
 4 UNITED STATES 00000   46818690      2000 EDU0102     Error   
 5 UNITED STATES 00000   47127066      2001 EDU0102     Error   
 6 UNITED STATES 00000   47606570      2002 EDU0102     Error   
 7 UNITED STATES 00000   48506317      2003 EDU0152     Error   
 8 UNITED STATES 00000   48693287      2004 EDU0152     Error   
 9 UNITED STATES 00000   48978555      2005 EDU0152     Error   
10 UNITED STATES 00000   49140702      2006 EDU0152     Error   
# ℹ 509 more rows
…
  #Return a list of combined county data and non-county data.
  return(list("County Data" = combined_county, "Non-County Data" = combined_non_county))
}

#Call the function for the output objects from our wrapper_function. Print out the combined list.
combined_list <- combine_both(edu_a,edu_b)
combined_list

$`County Data`
# A tibble: 62,425 × 6
   area_name   STCOU Enrollment Year_Date Measurement State
   <chr>       <chr>      <dbl>     <dbl> <chr>       <chr>
 1 Autauga, AL 01001       6829      1987 EDU0101     AL   
 2 Autauga, AL 01001       6900      1988 EDU0101     AL   
 3 Autauga, AL 01001       6920      1989 EDU0101     AL   
 4 Autauga, AL 01001       6847      1990 EDU0101     AL   
 5 Autauga, AL 01001       7008      1991 EDU0101     AL   
 6 Autauga, AL 01001       7137      1992 EDU0101     AL   
 7 Autauga, AL 01001       7152      1993 EDU0101     AL   
 8 Autauga, AL 01001       7381      1994 EDU0101     AL   
 9 Autauga, AL 01001       7568      1995 EDU0101     AL   
10 Autauga, AL 01001       7834      1996 EDU0101     AL   
# ℹ 62,415 more rows

$`Non-County Data`
# A tibble: 1,039 × 6
   area_name     STCOU Enrollment Year_Date Measurement Division
   <chr>         <chr>      <dbl>     <dbl> <chr>       <chr>   
 1 UNITED STATES 00000   40024299      1987 EDU0101     Error   
 2 UNITED STATES 00000   39967624      1988 EDU0101     Error   
 3 UNITED STATES 00000   40317775      1989 EDU0101     Error   
 4 UNITED STATES 00000   40737600      1990 EDU0101     Error   
 5 UNITED STATES 00000   41385442      1991 EDU0101     Error   
 6 UNITED STATES 00000   42088151      1992 EDU0101     Error   
 7 UNITED STATES 00000   42724710      1993 EDU0101     Error   
 8 UNITED STATES 00000   43369917      1994 EDU0101     Error   
 9 UNITED STATES 00000   43993459      1995 EDU0101     Error   
10 UNITED STATES 00000   44715737      1996 EDU0101     Error   
# ℹ 1,029 more rows
…
Putting it all Together

#Run data processing function on two given URLs. Used default for Enrollment column name.
edu_a <- wrap_all("https://www4.stat.ncsu.edu/~online/datasets/EDU01a.csv")

edu_b <- wrap_all("https://www4.stat.ncsu.edu/~online/datasets/EDU01b.csv")

#Run combining function to put into a list with two data frames. Print out combo_list.
combo_list <- combine_both(edu_a, edu_b)
combo_list

$`County Data`
# A tibble: 62,425 × 6
   area_name   STCOU Enrollment Year_Date Measurement State
   <chr>       <chr>      <dbl>     <dbl> <chr>       <chr>
 1 Autauga, AL 01001       6829      1987 EDU0101     AL   
 2 Autauga, AL 01001       6900      1988 EDU0101     AL   
 3 Autauga, AL 01001       6920      1989 EDU0101     AL   
 4 Autauga, AL 01001       6847      1990 EDU0101     AL   
 5 Autauga, AL 01001       7008      1991 EDU0101     AL   
 6 Autauga, AL 01001       7137      1992 EDU0101     AL   
 7 Autauga, AL 01001       7152      1993 EDU0101     AL   
 8 Autauga, AL 01001       7381      1994 EDU0101     AL   
 9 Autauga, AL 01001       7568      1995 EDU0101     AL   
10 Autauga, AL 01001       7834      1996 EDU0101     AL   
# ℹ 62,415 more rows

$`Non-County Data`
# A tibble: 1,039 × 6
   area_name     STCOU Enrollment Year_Date Measurement Division
   <chr>         <chr>      <dbl>     <dbl> <chr>       <chr>   
 1 UNITED STATES 00000   40024299      1987 EDU0101     Error   
 2 UNITED STATES 00000   39967624      1988 EDU0101     Error   
 3 UNITED STATES 00000   40317775      1989 EDU0101     Error   
 4 UNITED STATES 00000   40737600      1990 EDU0101     Error   
 5 UNITED STATES 00000   41385442      1991 EDU0101     Error   
 6 UNITED STATES 00000   42088151      1992 EDU0101     Error   
 7 UNITED STATES 00000   42724710      1993 EDU0101     Error   
 8 UNITED STATES 00000   43369917      1994 EDU0101     Error   
 9 UNITED STATES 00000   43993459      1995 EDU0101     Error   
10 UNITED STATES 00000   44715737      1996 EDU0101     Error   
# ℹ 1,029 more rows
…
